…
``` r
## load package 
require(dyRank)
require(tidyverse)
```

``` r
## load data 
data("f1_race", package = "dyRank")

## see ?f1_race for the details of this dataset.

## view data 
f1_race
#> # A tibble: 14,037 x 8
#>      Pos driver            Car            year  race  race_id GP     rank_type  
#>    <dbl> <chr>             <chr>          <fct> <fct> <fct>   <fct>  <fct>      
#>  1     1 Alain Prost       McLaren TAG    1984  races 466     brazil race-result
#>  2     2 Keke Rosberg      Williams Honda 1984  races 466     brazil race-result
#>  3     3 Elio de Angelis   Lotus Renault  1984  races 466     brazil race-result
#>  4     4 Eddie Cheever     Alfa Romeo     1984  races 466     brazil race-result
#>  5     5 Patrick Tambay    Renault        1984  races 466     brazil race-result
#>  6     6 Thierry Boutsen   Arrows Ford    1984  races 466     brazil race-result
#>  7     7 Marc Surer        Arrows Ford    1984  races 466     brazil race-result
#>  8     8 Jonathan Palmer   RAM Hart       1984  races 466     brazil race-result
#>  9    NA Derek Warwick     Renault        1984  races 466     brazil race-result
#> 10    NA Andrea de Cesaris Ligier Renault 1984  races 466     brazil race-result
#> # … with 14,027 more rows
```
…
## each element of lambda[[k]] is an estimate for drivers
length(fit$lambda[[1]][[1]])
#> [1] 2
```

  - `data` returns the list of formatted datasets.

<!-- end list -->

``` r
## formatted data used for the estimation 
fit$data$dat_ref
#> # A tibble: 9,285 x 6
#>    years races        drivers         rank_type id_time id_driver
#>    <fct> <fct>        <chr>               <dbl>   <dbl>     <dbl>
#>  1 1984  brazil       Alain Prost             1       1         4
#>  2 1984  brazil       Keke Rosberg            1       1       106
#>  3 1984  brazil       Elio de Angelis         1       1        43
#>  4 1984  brazil       Eddie Cheever           1       1        41
#>  5 1984  brazil       Patrick Tambay          1       1       153
#>  6 1984  brazil       Thierry Boutsen         1       1       196
#>  7 1984  brazil       Marc Surer              1       1       118
#>  8 1984  brazil       Jonathan Palmer         1       1        95
#>  9 1984  south-africa Niki Lauda              1       1       142
#> 10 1984  south-africa Alain Prost             1       1         4
#> # … with 9,275 more rows
…
### Obtaining the estimated rating via `get_rating()`

``` r
## get the summary of rating 
rating <- get_rating(fit)

## view the estimates 
rating
#> # A tibble: 1,103 x 7
#>    driver         year  `2.5%`    `5%`   `50%`  `95%` `97.5%`
#>    <chr>         <int>   <dbl>   <dbl>   <dbl>  <dbl>   <dbl>
#>  1 Adrian Campos  1987 -1.67   -1.58   -0.591   0.207   0.437
#>  2 Adrian Campos  1988 -2.28   -1.99   -0.777   0.342   0.423
#>  3 Adrian Sutil   2007 -1.88   -1.63   -0.682  -0.175  -0.113
#>  4 Adrian Sutil   2008 -1.36   -1.28   -0.516   0.203   0.301
#>  5 Adrian Sutil   2009 -0.813  -0.638   0.0959  0.726   0.802
#>  6 Adrian Sutil   2010  0.201   0.332   0.932   1.45    1.49 
#>  7 Adrian Sutil   2011  0.430   0.485   1.11    1.64    1.66 
#>  8 Adrian Sutil   2012 -0.0784 -0.0519  0.932   1.61    1.69 
#>  9 Adrian Sutil   2013 -0.0915 -0.0614  0.710   1.27    1.28 
#> 10 Adrian Sutil   2014 -1.08   -0.881  -0.108   0.557   0.589
#> # … with 1,093 more rows
```
…
#### Estimated rating (all chains combined)

We can obtain the summary statistics of the estimated rating by
specifying `summarize = TRUE` option in `bind_chains()` function. As
`bind_chains()` with `summarize = TRUE` option returns an object of
`dyRank.summary` class, a user can use `plot_raing()` function to
visualize the estimates as in the case of a single chain.

``` r
## summarise estimates by combining chains 
m_summary <- bind_chains(fit_nchains, summarize = TRUE)

## view the output 
m_summary
#> # A tibble: 1,103 x 7
#>    driver         year  `2.5%`    `5%`   `50%`  `95%` `97.5%`
#>    <chr>         <int>   <dbl>   <dbl>   <dbl>  <dbl>   <dbl>
#>  1 Adrian Campos  1987 -1.81   -1.62   -0.518   0.420  0.595 
#>  2 Adrian Campos  1988 -2.14   -1.89   -0.722   0.322  0.516 
#>  3 Adrian Sutil   2007 -1.55   -1.45   -0.807  -0.284 -0.213 
#>  4 Adrian Sutil   2008 -1.35   -1.24   -0.670  -0.112  0.0272
#>  5 Adrian Sutil   2009 -0.526  -0.469   0.0452  0.595  0.721 
#>  6 Adrian Sutil   2010  0.252   0.308   0.766   1.35   1.53  
#>  7 Adrian Sutil   2011  0.423   0.493   0.991   1.47   1.55  
#>  8 Adrian Sutil   2012 -0.0521  0.0697  0.780   1.52   1.61  
#>  9 Adrian Sutil   2013  0.0275  0.0703  0.619   1.08   1.14  
#> 10 Adrian Sutil   2014 -0.844  -0.765  -0.164   0.316  0.434 
#> # … with 1,093 more rows
…
